Lab-11-Edge-Sensitive-Circuits.sim/sim_1/behav/xsim/dump.vcd
$date
   Fri Nov  7 10:35:51 2025
$end

$version
  2024.1
$end

$timescale
  1ps
$end

$scope module test $end
$var reg 4 ! sw [3:0] $end
$var reg 1 " btnC $end
$var wire 6 # led [5:0] $end
$scope module uut $end
$var wire 4 $ sw [3:0] $end
$var wire 1 % btnC $end
$var wire 6 # led [5:0] $end
$scope module D_FF $end
$var wire 1 & D $end
$var wire 1 % Clk $end
$var reg 1 ' Q $end
$var wire 1 ( NotQ $end
$upscope $end
$scope module JK_FF $end
$var wire 1 ) J $end
$var wire 1 * K $end
$var wire 1 % Clk $end
$var wire 1 + Q $end
$var wire 1 , NotQ $end
$var wire 1 - D $end
$scope module D_FF $end
$var wire 1 - D $end
$var wire 1 % Clk $end
$var reg 1 . Q $end
$var wire 1 , NotQ $end
$upscope $end
$upscope $end
$scope module T_FF $end
$var wire 1 / T $end
$var wire 1 % Clk $end
$var wire 1 0 Q $end
$var wire 1 1 NotQ $end
$scope module JK_FF $end
$var wire 1 / J $end
$var wire 1 / K $end
$var wire 1 % Clk $end
$var wire 1 0 Q $end
$var wire 1 1 NotQ $end
$var wire 1 2 D $end
$scope module D_FF $end
$var wire 1 2 D $end
$var wire 1 % Clk $end
$var reg 1 3 Q $end
$var wire 1 1 NotQ $end
$upscope $end
$upscope $end
$upscope $end
$upscope $end
$scope task toggle_clock $end
$upscope $end
$scope task set_check_dff $end
$upscope $end
$scope task set_check_jkff $end
$upscope $end
$scope task set_check_tff $end
$upscope $end
$upscope $end
$enddefinitions $end

#0
$dumpvars
b0 !
0"
b101010 #
b0 $
0%
0&
0'
1(
0)
0*
0+
1,
0-
0.
0/
00
11
02
03
$end

#1000
1"
1%

#2000
0"
0%

#3000
1"
1%

#4000
b1 !
0"
b1 $
0%
1&
0)
0*
0/

#5000
1"
b101001 #
1%
1'
0(

#6000
b101 !
0"
b101 $
0%
1&
0)
1*
0/

#7000
1"
1%

#8000
b1 !
0"
b1 $
0%
1&
0)
0*
0/

#9000
1"
1%

#10000
b11 !
0"
b11 $
0%
1&
1)
0*
1-
0/

#11000
1"
b100101 #
1%
1+
0,
1.

#12000
b1 !
0"
b1 $
0%
1&
0)
0*
0/

#13000
1"
1%

#14000
b111 !
0"
b111 $
0%
1&
1)
1*
0-
0/

#15000
1"
b101001 #
1%
0+
1,
1-
0.

#16000
0"
0%

#17000
1"
b100101 #
1%
1+
0,
0-
1.

#18000
0"
0%

#19000
1"
b101001 #
1%
0+
1,
1-
0.

#20000
b1111 !
0"
b1111 $
0%
1&
1)
1*
1/
12

#21000
1"
b10101 #
1%
1+
0,
0-
1.
10
01
02
13

#22000
b111 !
0"
b111 $
0%
1&
1)
1*
0/
12

#23000
1"
b11001 #
1%
0+
1,
1-
0.

#24000
b1111 !
0"
b1111 $
0%
1&
1)
1*
1/
02

#25000
1"
b100101 #
1%
1+
0,
0-
1.
00
11
12
03

#26000
0"
